[gd_scene load_steps=4 format=2]

[ext_resource path="res://Ball/Ball.gd" type="Script" id=1]
[ext_resource path="res://Ball/Ball.png" type="Texture" id=2]

[sub_resource type="CircleShape2D" id=1]
radius = 19.03

[node name="Ball" type="Area2D" groups=[
"ball",
]]
script = ExtResource( 1 )

[node name="CollisionShape2D" type="CollisionShape2D" parent="."]
shape = SubResource( 1 )

[node name="Sprite" type="Sprite" parent="."]
texture = ExtResource( 2 )
[connection signal="area_entered" from="." to="." method="_on_Ball_area_entered"]
